<svg width="40px" height="34px" viewBox="0 0 40 34" version="1.1" xmlns="http://www.w3.org/2000/svg" xmlns:xlink="http://www.w3.org/1999/xlink">
    <defs>
        <linearGradient x1="100%" y1="0%" x2="0%" y2="100%" id="linearGradient-1">
            <stop stop-color="#FAD961" offset="0%"></stop>
            <stop stop-color="#F76B1C" offset="100%"></stop>
        </linearGradient>
    </defs>
    <g stroke="none" stroke-width="1" fill="none" fill-rule="evenodd">
        <g transform="translate(-140.000000, -80.000000)" fill="url(#linearGradient-1)">
            <path d="M144,80 L156.527864,80 C158.042952,80 159.428005,80.8560095 160.105573,82.2111456 L161.447214,84.8944272 C161.785998,85.5719952 162.478524,86 163.236068,86 L176,86 C178.209139,86 180,87.790861 180,90 L180,110 C180,112.209139 178.209139,114 176,114 L144,114 C141.790861,114 140,112.209139 140,110 L140,84 C140,81.790861 141.790861,80 144,80 Z M145.4,98 C144.626801,98 144,98.6268014 144,99.4 L144,108.5 C144,109.273199 144.626801,109.9 145.4,109.9 L156.6,109.9 C157.373199,109.9 158,109.273199 158,108.5 L158,101.5 C158,100.726801 157.373199,100.1 156.6,100.1 L152.132624,100.1 C151.867483,100.1 151.625099,99.9501983 151.506525,99.7130495 L151.03695,98.773901 C150.799802,98.2996033 150.315033,98 149.784752,98 L145.4,98 Z"></path>
        </g>
    </g>
</svg>