<svg width="50px" height="52px" viewBox="0 0 50 52" version="1.1" xmlns="http://www.w3.org/2000/svg" xmlns:xlink="http://www.w3.org/1999/xlink">
    <defs>
        <linearGradient x1="-9.1935199%" y1="111.428571%" x2="97.7367096%" y2="22.8571429%" id="linearGradient-1">
            <stop stop-color="#BC9706" offset="0%"></stop>
            <stop stop-color="#FFCC03" offset="100%"></stop>
        </linearGradient>
    </defs>
    <g id="Page-1" stroke="none" stroke-width="1" fill="none" fill-rule="evenodd">
        <g id="create-search-alert" transform="translate(-895.000000, -200.000000)" fill="url(#linearGradient-1)">
            <g id="Group-9" transform="translate(35.000000, 66.000000)">
                <path d="M910,134 L910,183.171573 C910,184.276142 909.104569,185.171573 908,185.171573 C907.469567,185.171573 906.960859,184.960859 906.585786,184.585786 L886.414214,164.414214 C885.633165,163.633165 884.366835,163.633165 883.585786,164.414214 L863.414214,184.585786 C862.633165,185.366835 861.366835,185.366835 860.585786,184.585786 C860.210714,184.210714 860,183.702006 860,183.171573 L860,134 L910,134 Z" id="Combined-Shape"></path>
            </g>
        </g>
    </g>
</svg>
