<?xml version="1.0" encoding="UTF-8"?>
<svg width="80px" height="80px" viewBox="0 0 80 80" version="1.1" xmlns="http://www.w3.org/2000/svg" xmlns:xlink="http://www.w3.org/1999/xlink">
    <!-- Generator: Sketch 63.1 (92452) - https://sketch.com -->
    <title>indifferent</title>
    <desc>Created with Sketch.</desc>
    <g id="indifferent" stroke="none" stroke-width="1" fill="none" fill-rule="evenodd">
        <g id="Group-2">
            <circle id="Oval" cx="40" cy="40" r="40"></circle>
            <path d="M28,27 C30.7614237,27 33,29.2385763 33,32 C33,34.7614237 30.7614237,37 28,37 C25.2385763,37 23,34.7614237 23,32 C23,29.2385763 25.2385763,27 28,27 Z M52,27 C54.7614237,27 57,29.2385763 57,32 C57,34.7614237 54.7614237,37 52,37 C49.2385763,37 47,34.7614237 47,32 C47,29.2385763 49.2385763,27 52,27 Z" id="Combined-Shape" fill="#202943"></path>
            <line x1="19" y1="53" x2="61" y2="53" id="Path-20" stroke="#202943" stroke-width="6" stroke-linecap="round"></line>
        </g>
    </g>
</svg>